{
  "project_info": {
    "project_number": "906579206824",
    "firebase_url": "https://choreapplication.firebaseio.com",
    "project_id": "choreapplication",
    "storage_bucket": "choreapplication.appspot.com"
  },
  "client": [
    {
      "client_info": {
        "mobilesdk_app_id": "1:906579206824:android:0472bfdeab83d73c",
        "android_client_info": {
          "package_name": "fischeranthony.com.choreapplication"
        }
      },
      "oauth_client": [
        {
          "client_id": "906579206824-nfebmjaspu2l1q5m1ggmfp77nvo2pufo.apps.googleusercontent.com",
          "client_type": 3
        }
      ],
      "api_key": [
        {
          "current_key": "AIzaSyCAUpISMPeutE5_9r5YKQ5Ay93RzYjJ2uE"
        }
      ],
      "services": {
        "analytics_service": {
          "status": 1
        },
        "appinvite_service": {
          "status": 1,
          "other_platform_oauth_client": []
        },
        "ads_service": {
          "status": 2
        }
      }
    }
  ],
  "configuration_version": "1"
}